Desarrollo Web Aplicacion I
Diseno del interfaces de usuario
HPDS
Ingeneria del Software II
Redes de Computadores
bez nazwy 3.pages

Z brancha FATM1:

*   af139a9 (HEAD -> FATM1, master) Merge branch 'FMP1'
|\  
| * 557762d (FMP1) Changes
|/  
* daaac96 First change
* a74674f First change
* 4603356 First change
* 54affca Upgraded file c.txt
* d5a5711 Added file c.txt
* b18ce9c New feature
* 9027679 Upgraded b file
* 70d197f second commit
* 6d22b82 first init
* ccf6a17 (HEAD -> FATM1) Added d file
*   af139a9 (master) Merge branch 'FMP1'
|\  
| * 557762d (FMP1) Changes
|/  
* daaac96 First change
* a74674f First change
* 4603356 First change
* 54affca Upgraded file c.txt
* d5a5711 Added file c.txt
* b18ce9c New feature
* 9027679 Upgraded b file
* 70d197f second commit
* 6d22b82 first init
